{
  "project_info": {
    "project_number": "234652223450",
    "firebase_url": "https://databasecsharp-e5598-default-rtdb.europe-west1.firebasedatabase.app",
    "project_id": "databasecsharp-e5598",
    "storage_bucket": "databasecsharp-e5598.appspot.com"
  },
  "client": [
    {
      "client_info": {
        "mobilesdk_app_id": "1:234652223450:android:b70a9d70756a855023a2e3",
        "android_client_info": {
          "package_name": "com.companyname.firebaseapp"
        }
      },
      "oauth_client": [
        {
          "client_id": "234652223450-094ooteq7an122v7vu2dhndh4vj0k7j2.apps.googleusercontent.com",
          "client_type": 3
        }
      ],
      "api_key": [
        {
          "current_key": "AIzaSyC5ex2bPnm77gL5eQuM93Spx4tIH7lOjFQ"
        }
      ],
      "services": {
        "appinvite_service": {
          "other_platform_oauth_client": [
            {
              "client_id": "234652223450-094ooteq7an122v7vu2dhndh4vj0k7j2.apps.googleusercontent.com",
              "client_type": 3
            }
          ]
        }
      }
    }
  ],
  "configuration_version": "1"
}